<?xml version="1.0" encoding="utf-8"?>
<!-- Generator: Adobe Illustrator 23.0.3, SVG Export Plug-In . SVG Version: 6.00 Build 0)  -->
<svg version="1.1" id="圖層_1" xmlns="http://www.w3.org/2000/svg" xmlns:xlink="http://www.w3.org/1999/xlink" x="0px" y="0px"
	 viewBox="0 0 104 69" style="enable-background:new 0 0 104 69;" xml:space="preserve">
<style type="text/css">
	.st0{fill:#040000;}
</style>
<g>
	<path class="st0" d="M56.8,50.8c-2.2,0-4.3-0.1-6.3-0.4V30.9c2-0.2,4.1-0.4,6.3-0.4c12.4,0,22.4,4.1,22.4,9.2v2
		C79.2,46.7,69.2,50.8,56.8,50.8z"/>
	<path class="st0" d="M56.8,61.1c-2.2,0-4.3-0.1-6.3-0.4V55c2,0.2,4.1,0.4,6.3,0.4c10.8,0,19.8-3.1,22-7.3c0.3,0.6,0.5,1.2,0.5,1.9
		v2C79.2,57,69.2,61.1,56.8,61.1z"/>
	<path class="st0" d="M24.4,15c12.4,0,22.4,4.1,22.4,9.2v2c0,5.1-10,9.2-22.4,9.2S2,31.2,2,26.1v-2C2,19.1,12,15,24.4,15z"/>
	<path class="st0" d="M24.4,39.8c10.8,0,19.8-3.1,22-7.3c0.3,0.6,0.5,1.2,0.5,1.9v2c0,5.1-10,9.2-22.4,9.2S2,41.4,2,36.4v-2
		c0-0.6,0.2-1.3,0.5-1.9C4.6,36.7,13.6,39.8,24.4,39.8z"/>
	<path class="st0" d="M24.4,50c10.8,0,19.8-3.1,22-7.3c0.3,0.6,0.5,1.2,0.5,1.9v2c0,5.1-10,9.2-22.4,9.2S2,51.7,2,46.6v-2
		c0-0.6,0.2-1.3,0.5-1.9C4.6,46.9,13.6,50,24.4,50z"/>
	<path class="st0" d="M24.4,60.8c10.8,0,19.8-3.1,22-7.3c0.3,0.6,0.5,1.2,0.5,1.9v2c0,5.1-10,9.2-22.4,9.2S2,62.4,2,57.4v-2
		c0-0.6,0.2-1.3,0.5-1.9C4.6,57.7,13.6,60.8,24.4,60.8z"/>
	<polygon class="st0" points="57.3,11.4 81,11.4 81,2.4 102,16.6 81,30.8 81,21.9 57.3,21.9 	"/>
</g>
</svg>
